<svg width="8" height="8" viewBox="0 0 8 8" fill="none" xmlns="http://www.w3.org/2000/svg">
<path id="Shape" fill-rule="evenodd" clip-rule="evenodd" d="M6.1 3.5L3.3 0.7L4 0L8 4L4 8L3.3 7.3L6.1 4.5H0V3.5H6.1Z" fill="#4158F6"/>
</svg>
