<svg width="20" height="20" viewBox="0 0 20 20" fill="none" xmlns="http://www.w3.org/2000/svg">
<g id="Group 4090">
<path id="mask" fill-rule="evenodd" clip-rule="evenodd" d="M10 20C15.5228 20 20 15.5228 20 10C20 4.47715 15.5228 0 10 0C4.47715 0 0 4.47715 0 10C0 15.5228 4.47715 20 10 20Z" fill="#E8EDF1"/>
<path id="Vector" d="M5 12.7087V15H7.29135L14.0493 8.24205L11.758 5.9507L5 12.7087ZM15.8213 6.47007C16.0596 6.23177 16.0596 5.84683 15.8213 5.60853L14.3915 4.17873C14.1532 3.94042 13.7682 3.94042 13.5299 4.17873L12.4117 5.2969L14.7031 7.58825L15.8213 6.47007Z" fill="#B3B3B3"/>
</g>
</svg>
